^C:\DEV\CPP\GIP PRAKTIKUM\PRAKTIKA\PRAK12_1\MAIN.CPP|C:\DEV\CPP\GIP PRAKTIKUM\PRAKTIKA\PRAK12_1\SORT.CPP
C:\DEV\CPP\GIP PRAKTIKUM\PRAKTIKA\PRAK12_1\X64\DEBUG\VC140.PDB
C:\DEV\CPP\GIP PRAKTIKUM\PRAKTIKA\PRAK12_1\X64\DEBUG\VC140.IDB
C:\DEV\CPP\GIP PRAKTIKUM\PRAKTIKA\PRAK12_1\X64\DEBUG\MAIN.OBJ
C:\DEV\CPP\GIP PRAKTIKUM\PRAKTIKA\PRAK12_1\X64\DEBUG\SORT.OBJ
^C:\DEV\CPP\GIP PRAKTIKUM\PRAKTIKA\PRAK12_1\MAIN.CPP
C:\DEV\CPP\GIP PRAKTIKUM\PRAKTIKA\PRAK12_1\X64\DEBUG\VC140.PDB
C:\DEV\CPP\GIP PRAKTIKUM\PRAKTIKA\PRAK12_1\X64\DEBUG\VC140.IDB
C:\DEV\CPP\GIP PRAKTIKUM\PRAKTIKA\PRAK12_1\X64\DEBUG\MAIN.OBJ
^C:\DEV\CPP\GIP PRAKTIKUM\PRAKTIKA\PRAK12_1\SORT.CPP
C:\DEV\CPP\GIP PRAKTIKUM\PRAKTIKA\PRAK12_1\X64\DEBUG\VC140.PDB
