^C:\DEV\CPP\GIP PRAKTIKUM\PRAKTIKA\PRAK12_1\X64\DEBUG\MAIN.OBJ|C:\DEV\CPP\GIP PRAKTIKUM\PRAKTIKA\PRAK12_1\X64\DEBUG\SORT.OBJ
C:\DEV\CPP\GIP PRAKTIKUM\PRAKTIKA\X64\DEBUG\PRAK12_1.ILK
C:\DEV\CPP\GIP PRAKTIKUM\PRAKTIKA\X64\DEBUG\PRAK12_1.EXE
C:\DEV\CPP\GIP PRAKTIKUM\PRAKTIKA\X64\DEBUG\PRAK12_1.PDB
