^C:\DEV\CPP\GIP PRAKTIKUM\PRAKTIKA\PRAK8_2\X64\DEBUG\MAIN.OBJ|C:\DEV\CPP\GIP PRAKTIKUM\PRAKTIKA\PRAK8_2\X64\DEBUG\WORTSPIEGEL.OBJ
C:\DEV\CPP\GIP PRAKTIKUM\PRAKTIKA\X64\DEBUG\PRAK8_2.ILK
C:\DEV\CPP\GIP PRAKTIKUM\PRAKTIKA\X64\DEBUG\PRAK8_2.EXE
C:\DEV\CPP\GIP PRAKTIKUM\PRAKTIKA\X64\DEBUG\PRAK8_2.PDB
