^C:\DEV\CPP\GIP PRAKTIKUM\PRAKTIKA\PRAK11_3\MAIN.CPP
C:\DEV\CPP\GIP PRAKTIKUM\PRAKTIKA\PRAK11_3\X64\DEBUG\VC140.PDB
C:\DEV\CPP\GIP PRAKTIKUM\PRAKTIKA\PRAK11_3\X64\DEBUG\VC140.IDB
C:\DEV\CPP\GIP PRAKTIKUM\PRAKTIKA\PRAK11_3\X64\DEBUG\MAIN.OBJ
