^C:\DEV\CPP\GIP PRAKTIKUM\PRAKTIKA\PRAK13_3\COLLISION_TEST.CPP|C:\DEV\CPP\GIP PRAKTIKUM\PRAKTIKA\PRAK13_3\MAIN.CPP|C:\DEV\CPP\GIP PRAKTIKUM\PRAKTIKA\PRAK13_3\MYRECTANGLE.CPP
C:\DEV\CPP\GIP PRAKTIKUM\PRAKTIKA\PRAK13_3\X64\DEBUG\VC140.PDB
C:\DEV\CPP\GIP PRAKTIKUM\PRAKTIKA\PRAK13_3\X64\DEBUG\VC140.IDB
C:\DEV\CPP\GIP PRAKTIKUM\PRAKTIKA\PRAK13_3\X64\DEBUG\COLLISION_TEST.OBJ
C:\DEV\CPP\GIP PRAKTIKUM\PRAKTIKA\PRAK13_3\X64\DEBUG\MAIN.OBJ
C:\DEV\CPP\GIP PRAKTIKUM\PRAKTIKA\PRAK13_3\X64\DEBUG\MYRECTANGLE.OBJ
^C:\DEV\CPP\GIP PRAKTIKUM\PRAKTIKA\PRAK13_3\COLLISION_TEST.CPP
C:\DEV\CPP\GIP PRAKTIKUM\PRAKTIKA\PRAK13_3\X64\DEBUG\VC140.PDB
^C:\DEV\CPP\GIP PRAKTIKUM\PRAKTIKA\PRAK13_3\MAIN.CPP
C:\DEV\CPP\GIP PRAKTIKUM\PRAKTIKA\PRAK13_3\X64\DEBUG\VC140.PDB
^C:\DEV\CPP\GIP PRAKTIKUM\PRAKTIKA\PRAK13_3\MYRECTANGLE.CPP
C:\DEV\CPP\GIP PRAKTIKUM\PRAKTIKA\PRAK13_3\X64\DEBUG\VC140.PDB
