^C:\DEV\CPP\GIP PRAKTIKUM\PRAKTIKA\PRAK8_1\X64\DEBUG\ANIMATION.OBJ
C:\DEV\CPP\GIP PRAKTIKUM\PRAKTIKA\X64\DEBUG\PRAK8_1.ILK
C:\DEV\CPP\GIP PRAKTIKUM\PRAKTIKA\X64\DEBUG\PRAK8_1.EXE
C:\DEV\CPP\GIP PRAKTIKUM\PRAKTIKA\X64\DEBUG\PRAK8_1.PDB
