^C:\DEV\CPP\GIP PRAKTIKUM\PRAKTIKA\PRAK11_2\MAIN.CPP
C:\DEV\CPP\GIP PRAKTIKUM\PRAKTIKA\PRAK11_2\X64\DEBUG\VC140.PDB
C:\DEV\CPP\GIP PRAKTIKUM\PRAKTIKA\PRAK11_2\X64\DEBUG\VC140.IDB
C:\DEV\CPP\GIP PRAKTIKUM\PRAKTIKA\PRAK11_2\X64\DEBUG\MAIN.OBJ
