^C:\DEV\CPP\GIP PRAKTIKUM\PRAKTIKA\PRAK13_4\COLLISION_TEST.CPP
/c /ZI /nologo /W3 /WX- /sdl /Od /D _DEBUG /D _CONSOLE /D _UNICODE /D UNICODE /Gm /EHsc /RTC1 /MDd /GS /fp:precise /Zc:wchar_t /Zc:forScope /Zc:inline /Fo"X64\DEBUG\\" /Fd"X64\DEBUG\VC140.PDB" /Gd /TP C:\DEV\CPP\GIP PRAKTIKUM\PRAKTIKA\PRAK13_4\COLLISION_TEST.CPP
^C:\DEV\CPP\GIP PRAKTIKUM\PRAKTIKA\PRAK13_4\MAIN.CPP
/c /ZI /nologo /W3 /WX- /sdl /Od /D _DEBUG /D _CONSOLE /D _UNICODE /D UNICODE /Gm /EHsc /RTC1 /MDd /GS /fp:precise /Zc:wchar_t /Zc:forScope /Zc:inline /Fo"X64\DEBUG\\" /Fd"X64\DEBUG\VC140.PDB" /Gd /TP C:\DEV\CPP\GIP PRAKTIKUM\PRAKTIKA\PRAK13_4\MAIN.CPP
^C:\DEV\CPP\GIP PRAKTIKUM\PRAKTIKA\PRAK13_4\MYRECTANGLE.CPP
/c /ZI /nologo /W3 /WX- /sdl /Od /D _DEBUG /D _CONSOLE /D _UNICODE /D UNICODE /Gm /EHsc /RTC1 /MDd /GS /fp:precise /Zc:wchar_t /Zc:forScope /Zc:inline /Fo"X64\DEBUG\\" /Fd"X64\DEBUG\VC140.PDB" /Gd /TP C:\DEV\CPP\GIP PRAKTIKUM\PRAKTIKA\PRAK13_4\MYRECTANGLE.CPP
