^C:\DEV\CPP\GIP PRAKTIKUM\PRAKTIKA\PRAK5_1\X64\DEBUG\MAIN.OBJ
C:\DEV\CPP\GIP PRAKTIKUM\PRAKTIKA\X64\DEBUG\PRAK5_1.ILK
C:\DEV\CPP\GIP PRAKTIKUM\PRAKTIKA\X64\DEBUG\PRAK5_1.EXE
C:\DEV\CPP\GIP PRAKTIKUM\PRAKTIKA\X64\DEBUG\PRAK5_1.PDB
