^C:\DEV\CPP\GIP PRAKTIKUM\PRAKTIKA\PRAK4\MAIN.CPP
C:\DEV\CPP\GIP PRAKTIKUM\PRAKTIKA\PRAK4\X64\DEBUG\VC140.PDB
C:\DEV\CPP\GIP PRAKTIKUM\PRAKTIKA\PRAK4\X64\DEBUG\VC140.IDB
C:\DEV\CPP\GIP PRAKTIKUM\PRAKTIKA\PRAK4\X64\DEBUG\MAIN.OBJ
